Chapter 9 Market evaluation | Guide to Wise Investing
…
## 21                                   SGT    +8         12:00-13:00
## 22                                   MSK    +3                    
## 23                                   ICT    +7         12:30-14:00
## 24                      CST/CDT (DST MX)    –6 Apr–Oct          No
## 25                                   WIB    +7         12:00–13:30
## 26                   +1          Mar–Oct 09:00   17:00          No
## 27                   +1          Mar–Oct 09:00   17:30          No
## 28                   +2          Mar–Oct 10:00   18:30          No
## 29                   +2          Mar–Oct 10:00   16:00          No
## 30                   +2          Mar–Oct 10:00   16:00          No
## 31                   +2          Mar–Oct 10:00   16:00          No
## 32                   +0                  09:30   15:30          No
## 33                   +4                  10:00   15:00          No

## # A tibble: 30 x 3
## # Groups:   Country Name [30]
##    `Country Name`        Year Marketcap
##    <chr>                <dbl>     <dbl>
##  1 United States         2019     10857
##  2 China                 2019      6530
##  3 Japan                 2019      5679
##  4 United Kingdom Italy  2019      4590
##  5 India                 2019      4086
##  6 Hong Kong             2019      3936
##  7 European Union        2019      3927
##  8 Canada                2019      3256
##  9 Germany               2019      1864
## 10 Switzerland           2019      1523
## # … with 20 more rows

## [1] "United Kingdom Italy" "European Union"       "Taiwan"              
## [4] "72"

## # A tibble: 905 x 3
##    `Country Name`  Year Marketcap
##    <chr>          <dbl>     <dbl>
##  1 United States   2017   3.21e13
##  2 United States   2018   3.04e13
##  3 United States   2016   2.74e13
##  4 China           2017   8.71e12
##  5 China           2019   8.52e12
##  6 China           2016   7.32e12
##  7 China           2018   6.32e12
##  8 Japan           2017   6.22e12
##  9 Japan           2019   6.19e12
## 10 Japan           2018   5.30e12
## # … with 895 more rows

## # A tibble: 30 x 3
## # Groups:   Country Name [30]
##    `Country Name`        Year Marketcap
##    <chr>                <dbl>     <dbl>
##  1 United States         2019     10857
##  2 China                 2019      6530
##  3 Japan                 2019      5679
##  4 United Kingdom Italy  2019      4590
##  5 India                 2019      4086
##  6 Hong Kong             2019      3936
##  7 European Union        2019      3927
##  8 Canada                2019      3256
##  9 Germany               2019      1864
## 10 Switzerland           2019      1523
## # … with 20 more rows
…
